<?xml version="1.0" standalone="no"?>
<!DOCTYPE svg PUBLIC "-//W3C//DTD SVG 1.1//EN" "http://www.w3.org/Graphics/SVG/1.1/DTD/svg11.dtd">
<svg xmlns="http://www.w3.org/2000/svg">
<metadata>Copyright (C) 2023 by original authors @ fontello.com</metadata>
<defs>
<font id="mobilohm-font" horiz-adv-x="1000" >
<font-face font-family="mobilohm-font" font-weight="400" font-stretch="normal" units-per-em="1000" ascent="850" descent="-150" />
<missing-glyph horiz-adv-x="1000" />
<glyph glyph-name="info" unicode="&#xe800;" d="M571 82v89q0 8-5 13t-12 5h-54v286q0 8-5 13t-13 5h-178q-8 0-13-5t-5-13v-89q0-8 5-13t13-5h53v-179h-53q-8 0-13-5t-5-13v-89q0-8 5-13t13-5h250q7 0 12 5t5 13z m-71 500v89q0 8-5 13t-13 5h-107q-8 0-13-5t-5-13v-89q0-8 5-13t13-5h107q8 0 13 5t5 13z m357-232q0-117-57-215t-156-156-215-58-216 58-155 156-58 215 58 215 155 156 216 58 215-58 156-156 57-215z" horiz-adv-x="857.1" />

<glyph glyph-name="stats" unicode="&#xe801;" d="M40 217q-34 28-39 70t22 76l209 260q26 33 68 38t76-19l127-96 145 181q28 34 70 39t77-23 38-70-22-76l-208-260q-26-32-68-38t-75 19l-128 97-146-182q-30-40-81-40-35 0-65 24z m13-284q-21 0-37 16t-15 37 15 36 37 15l729 0q21 0 37-15t16-36-16-37-37-16l-729 0z" horiz-adv-x="835" />

<glyph glyph-name="plus" unicode="&#xe802;" d="M729 454q44 0 74-31t31-73-31-73-74-30l-208 3 0-212q0-43-30-73t-75-31-73 31-30 73l3 212-212-3q-44 0-74 30t-30 73 30 73 74 31l212 0-3 209q0 42 30 73t73 31 75-31 30-73l0-209 208 0z" horiz-adv-x="834" />

<glyph glyph-name="minus" unicode="&#xe803;" d="M729 455q44 0 74-32t31-73-31-74-74-30l-625 0q-44 0-74 30t-30 74q0 43 31 74t73 31l625 0z" horiz-adv-x="834" />

<glyph glyph-name="back" unicode="&#xe804;" d="M200 350l0-90-200 160 200 170 0-100 550 0q40 0 70-29t30-71l0-280-140 0 0 240-510 0z" horiz-adv-x="850" />

<glyph glyph-name="settings" unicode="&#xe805;" d="M560 741l-156 0-45-178-176 51-79-136 133-128-133-127 79-135 176 50 45-178 156 0 44 178 178-50 77 135-132 127 132 128-77 136-178-51z m0 104q35 0 63-22t37-57l19-73 74 21q15 4 29 4 60 0 90-53l77-135q18-31 13-66t-30-60l-55-54 55-52q25-25 30-60t-13-67l-77-136q-30-51-90-51-14 0-29 3l-74 21-17-74q-9-35-37-57t-65-22l-156 0q-36 0-64 22t-37 57l-19 74-72-22q-15-4-29-4-60 0-90 53l-79 135q-18 31-13 67t31 61l55 52-55 53q-25 25-30 60t12 67l79 135q30 53 90 53 14 0 29-4l72-21 19 73q9 35 37 57t64 22l156 0z m-78-391q-44 0-74-30t-30-74 30-74 74-30 74 31 31 73-31 73-74 31z m0 52q65 0 110-45t46-111-46-111-110-45-111 45-46 111 46 111 111 45z" horiz-adv-x="963" />

<glyph glyph-name="play" unicode="&#xe806;" d="M486 376q14-10 14-26 0-14-14-24l-428-266q-24-16-41-6t-17 40l0 514q0 30 17 40t41-6z" horiz-adv-x="500" />

<glyph glyph-name="dot" unicode="&#xe807;" d="M110 460q46 0 78-32t32-78q0-44-32-77t-78-33-78 33-32 77q0 46 32 78t78 32z" horiz-adv-x="220" />

<glyph glyph-name="pause" unicode="&#xe808;" d="M440 700q90 0 90-64l0-570q0-66-90-66t-90 66l0 570q0 64 90 64z m-350 0q90 0 90-64l0-570q0-66-90-66t-90 66l0 570q0 64 90 64z" horiz-adv-x="530" />

<glyph glyph-name="save" unicode="&#xe809;" d="M714 100q0 15-10 25t-25 11-25-11-11-25 11-25 25-11 25 11 10 25z m143 0q0 15-10 25t-26 11-25-11-10-25 10-25 25-11 26 11 10 25z m72 125v-179q0-22-16-37t-38-16h-821q-23 0-38 16t-16 37v179q0 22 16 38t38 16h259l75-76q33-32 76-32t76 32l76 76h259q22 0 38-16t16-38z m-182 318q10-23-8-39l-250-250q-10-11-25-11t-25 11l-250 250q-17 16-8 39 10 21 33 21h143v250q0 15 11 25t25 11h143q14 0 25-11t10-25v-250h143q24 0 33-21z" horiz-adv-x="928.6" />

<glyph glyph-name="stop" unicode="&#xe80a;" d="M526 650q74 0 74-64l0-470q0-66-74-66l-450 0q-76 0-76 66l0 470q0 36 18 50t58 14l450 0z" horiz-adv-x="600" />

<glyph glyph-name="left-circle" unicode="&#xe80b;" d="M1000 349q0-136-67-251t-182-182-251-67-251 67-182 182-67 251 67 251 182 182 251 67 251-67 182-182 67-251z m-453-232l71 71-161 161 161 161-71 71-233-232z" horiz-adv-x="1000" />

<glyph glyph-name="right-circle" unicode="&#xe80c;" d="M1000 349q0-136-67-251t-182-182-251-67-251 67-182 182-67 251 67 251 182 182 251 67 251-67 182-182 67-251z m-547-232l233 232-233 232-71-71 161-161-161-161z" horiz-adv-x="1000" />

<glyph glyph-name="trash" unicode="&#xe80d;" d="M0 569l0 68q2 37 29 63t65 25l94 0 0 31q0 39 27 67t66 27l313 0q39 0 66-27t28-67l0-31 93 0q37 0 65-25t29-63l0-68q0-26-19-44t-44-19l0-531q0-53-36-89t-88-36l-500 0q-53 0-89 36t-36 89l0 531q-26 0-44 19t-19 44z m63 0l749 0 0 62q0 14-8 23t-23 8l-687 0q-14 0-23-8t-8-23l0-62z m62-594q0-25 19-44t44-19l500 0q25 0 43 19t19 44l0 531-625 0 0-531z m63 31l0 407q0 13 8 22t23 9l62 0q14 0 23-9t9-22l0-407q0-13-9-22t-23-9l-62 0q-14 0-23 9t-8 22z m31 0l62 0 0 407-62 0 0-407z m31 719l375 0 0 31q0 14-9 23t-22 8l-313 0q-13 0-22-8t-9-23l0-31z m125-719l0 407q0 13 9 22t22 9l63 0q13 0 22-9t9-22l0-407q0-13-9-22t-22-9l-63 0q-13 0-22 9t-9 22z m31 0l63 0 0 407-63 0 0-407z m157 0l0 407q0 13 8 22t23 9l62 0q14 0 23-9t9-22l0-407q0-13-9-22t-23-9l-62 0q-14 0-23 9t-8 22z m31 0l62 0 0 407-62 0 0-407z" horiz-adv-x="875" />

<glyph glyph-name="pencil" unicode="&#xe80e;" d="M938 605q22-22 22-55t-22-55l-570-570q-22-21-60-38t-73-17l-235 0 0 234q0 35 17 74t38 60l570 570q23 22 55 22t55-22z m-794-426l65-64 431 433-64 63z m91-205q14 0 33 8-10 10-27 26t-50 50-56 56l-22 22q-9-21-9-32l0-78 52-52 79 0z m74 40l432 432-63 64-433-431z m469 469l67 67-165 165-67-66z" horiz-adv-x="960" />

<glyph glyph-name="check-true" unicode="&#xe80f;" d="M786 331v-177q0-67-47-114t-114-47h-464q-67 0-114 47t-47 114v464q0 66 47 113t114 48h464q35 0 65-14 9-4 10-13 2-10-5-16l-27-28q-6-5-13-5-1 0-5 1-13 3-25 3h-464q-37 0-63-26t-27-63v-464q0-37 27-63t63-27h464q37 0 63 27t26 63v141q0 8 5 13l36 35q6 6 13 6 3 0 7-2 11-4 11-16z m129 273l-455-454q-13-14-31-14t-32 14l-240 240q-14 13-14 31t14 32l61 62q14 13 32 13t32-13l147-147 361 361q13 13 31 13t32-13l62-61q13-14 13-32t-13-32z" horiz-adv-x="928.6" />

<glyph glyph-name="install" unicode="&#xe810;" d="M884 306q24-52 14-96l-34-184q-2-20-19-35t-39-15l-712 0q-22 0-39 15t-19 35l-34 184q-8 50 14 96l158 374q22 46 72 46l104 0-20-204-134 0 254-210 256 210-136 0-18 204 102 0q50 0 74-46z m-68-132q2 22-10 38t-34 16l-644 0q-22 0-34-16t-10-38l14-74q2-22 19-37t37-15l592 0q22 0 39 15t19 37z" horiz-adv-x="901" />

<glyph glyph-name="update" unicode="&#xe811;" d="M707 700l150 150v-405h-405l153 153q-77 62-176 62-111 0-193-76t-92-186h-143q9 170 133 287t295 117q157 0 278-102z m-278-660q111 0 193 76t91 186h143q-9-170-133-287t-294-117q-158 0-279 102l-150-150v405h405l-153-153q78-62 177-62z" horiz-adv-x="857" />

<glyph glyph-name="check-false" unicode="&#xf096;" d="M625 707h-464q-37 0-63-26t-27-63v-464q0-37 27-63t63-27h464q37 0 63 27t26 63v464q0 37-26 63t-63 26z m161-89v-464q0-67-47-114t-114-47h-464q-67 0-114 47t-47 114v464q0 66 47 113t114 48h464q66 0 114-48t47-113z" horiz-adv-x="785.7" />

<glyph glyph-name="html5" unicode="&#xf13b;" d="M631 517l9 98h-494l26-298h342l-12-128-110-29-110 29-7 78h-97l12-155 202-55h2v0l200 55 28 304h-359l-8 101h376z m-631 262h786l-72-803-322-90-321 90z" horiz-adv-x="785.7" />

<glyph glyph-name="circle" unicode="&#xf192;" d="M571 350q0-59-41-101t-101-42-101 42-42 101 42 101 101 42 101-42 41-101z m-142 304q-83 0-153-41t-110-111-41-152 41-152 110-111 153-41 152 41 110 111 41 152-41 152-110 111-152 41z m428-304q0-117-57-215t-156-156-215-58-216 58-155 156-58 215 58 215 155 156 216 58 215-58 156-156 57-215z" horiz-adv-x="857.1" />

<glyph glyph-name="gitlab" unicode="&#xf296;" d="M58 456l442-566-484 351q-10 7-14 19t0 24l56 172z m258 0h368l-184-566z m-111 342l111-342h-258l111 342q4 12 18 12t18-12z m737-342l56-172q4-12 0-24t-14-19l-484-351 442 566z m0 0h-258l111 342q4 12 18 12t19-12z" horiz-adv-x="1000" />
</font>
</defs>
</svg>
